Suite/Test/Step Name,Browser,Description,Tag,Start time,End time,Duration,Status
Register,,,,2023-10-27 05:40:19,2023-10-27 05:51:55,11m - 35.796s,FAILED
,,,,,,,
Test Cases/Register/REG - 001 - register with valid data,,,,2023-10-27 05:40:20,2023-10-27 05:41:47,1m - 27.010s,PASSED
"startApplication(""C:\Users\Hp\Downloads\DemoAppV2 (1).apk"", true)",,,,2023-10-27 05:40:23,2023-10-27 05:41:26,1m - 3.108s,PASSED
"tap(findTestObject(""Object Repository/Register/Button - Login Here""), 0)",,,,2023-10-27 05:41:26,2023-10-27 05:41:28,2.303s,PASSED
"tap(findTestObject(""Object Repository/Register/TextView - Register, now""), 0)",,,,2023-10-27 05:41:28,2023-10-27 05:41:29,1.168s,PASSED
"setText(findTestObject(""Object Repository/Register/SetText - Nama""), ""Robbi"", 0)",,,,2023-10-27 05:41:29,2023-10-27 05:41:31,2.059s,PASSED
"tap(findTestObject(""Object Repository/Register/Button Logo Calender""), 0)",,,,2023-10-27 05:41:31,2023-10-27 05:41:33,1.288s,PASSED
"tap(findTestObject(""Object Repository/Register/Button - OKE Calender""), 0)",,,,2023-10-27 05:41:33,2023-10-27 05:41:35,1.957s,PASSED
"setText(findTestObject(""Object Repository/Register/Set Text Email""), ""robbifirli12@gmail.com"", 0)",,,,2023-10-27 05:41:35,2023-10-27 05:41:36,1.296s,PASSED
"setText(findTestObject(""Object Repository/Register/Set Text Whatsapp""), ""082143665342"", 0)",,,,2023-10-27 05:41:36,2023-10-27 05:41:38,1.698s,PASSED
"setEncryptedText(findTestObject(""Object Repository/Register/Set Text Password""), ""5v8hUXfQu8ylf0sBGmc/Og=="", 0)",,,,2023-10-27 05:41:38,2023-10-27 05:41:39,1.701s,PASSED
"setEncryptedText(findTestObject(""Object Repository/Register/Set Text Confirmation Password""), ""5v8hUXfQu8ylf0sBGmc/Og=="", 0)",,,,2023-10-27 05:41:39,2023-10-27 05:41:41,2.055s,PASSED
"tap(findTestObject(""Object Repository/Register/CheckBox terms and conditions""), 0)",,,,2023-10-27 05:41:41,2023-10-27 05:41:43,1.531s,PASSED
"tap(findTestObject(""Object Repository/Register/Button - Daftar""), 0)",,,,2023-10-27 05:41:43,2023-10-27 05:41:44,1.417s,PASSED
closeApplication(),,,,2023-10-27 05:41:44,2023-10-27 05:41:47,3.098s,PASSED
,,,,,,,
Test Cases/Register/REG - 002 - register without name,,,,2023-10-27 05:41:48,2023-10-27 05:42:48,1m - 0.011s,PASSED
"startApplication(""C:\Users\Hp\Downloads\DemoAppV2 (1).apk"", true)",,,,2023-10-27 05:41:49,2023-10-27 05:42:26,37.545s,PASSED
"tap(findTestObject(""Object Repository/Register/Button - Login Here""), 0)",,,,2023-10-27 05:42:26,2023-10-27 05:42:28,1.967s,PASSED
"tap(findTestObject(""Object Repository/Register/TextView - Register, now""), 0)",,,,2023-10-27 05:42:28,2023-10-27 05:42:30,1.526s,PASSED
"setText(findTestObject(""Object Repository/Register/SetText - Nama""), "" "", 0)",,,,2023-10-27 05:42:30,2023-10-27 05:42:32,1.978s,PASSED
"tap(findTestObject(""Object Repository/Register/Button Logo Calender""), 0)",,,,2023-10-27 05:42:32,2023-10-27 05:42:33,1.551s,PASSED
"tap(findTestObject(""Object Repository/Register/Button - OKE Calender""), 0)",,,,2023-10-27 05:42:33,2023-10-27 05:42:35,2.017s,PASSED
"setText(findTestObject(""Object Repository/Register/Set Text Email""), ""robbifirli12@gmail.com"", 0)",,,,2023-10-27 05:42:35,2023-10-27 05:42:37,1.574s,PASSED
"setText(findTestObject(""Object Repository/Register/Set Text Whatsapp""), ""082143665342"", 0)",,,,2023-10-27 05:42:37,2023-10-27 05:42:38,1.688s,PASSED
"setEncryptedText(findTestObject(""Object Repository/Register/Set Text Password""), ""5v8hUXfQu8ylf0sBGmc/Og=="", 0)",,,,2023-10-27 05:42:38,2023-10-27 05:42:40,1.921s,PASSED
"setEncryptedText(findTestObject(""Object Repository/Register/Set Text Confirmation Password""), ""5v8hUXfQu8ylf0sBGmc/Og=="", 0)",,,,2023-10-27 05:42:40,2023-10-27 05:42:42,1.589s,PASSED
"tap(findTestObject(""Object Repository/Register/CheckBox terms and conditions""), 0)",,,,2023-10-27 05:42:42,2023-10-27 05:42:43,1.397s,PASSED
"verifyElementVisible(findTestObject(""Register/android.widget.TextView - Name cant be empty""), 0)",,,,2023-10-27 05:42:43,2023-10-27 05:42:45,1.217s,PASSED
closeApplication(),,,,2023-10-27 05:42:45,2023-10-27 05:42:48,3.100s,PASSED
,,,,,,,
Test Cases/Register/REG - 003 - register with whatsapp number under 9,,,,2023-10-27 05:42:48,2023-10-27 05:43:59,1m - 11.639s,PASSED
"startApplication(""C:\Users\Hp\Downloads\DemoAppV2 (1).apk"", true)",,,,2023-10-27 05:42:49,2023-10-27 05:43:38,48.506s,PASSED
"tap(findTestObject(""Object Repository/Register/Button - Login Here""), 0)",,,,2023-10-27 05:43:38,2023-10-27 05:43:40,1.973s,PASSED
"tap(findTestObject(""Object Repository/Register/TextView - Register, now""), 0)",,,,2023-10-27 05:43:40,2023-10-27 05:43:42,2.237s,PASSED
"setText(findTestObject(""Object Repository/Register/SetText - Nama""), ""Robbi"", 0)",,,,2023-10-27 05:43:42,2023-10-27 05:43:44,2.001s,PASSED
"tap(findTestObject(""Object Repository/Register/Button Logo Calender""), 0)",,,,2023-10-27 05:43:44,2023-10-27 05:43:45,1.450s,PASSED
"tap(findTestObject(""Object Repository/Register/Button - OKE Calender""), 0)",,,,2023-10-27 05:43:45,2023-10-27 05:43:47,1.933s,PASSED
"setText(findTestObject(""Object Repository/Register/Set Text Email""), ""robbifirli12@gmail.com"", 0)",,,,2023-10-27 05:43:47,2023-10-27 05:43:49,1.540s,PASSED
"setText(findTestObject(""Object Repository/Register/Set Text Whatsapp""), ""1"", 0)",,,,2023-10-27 05:43:49,2023-10-27 05:43:50,1.601s,PASSED
"setEncryptedText(findTestObject(""Object Repository/Register/Set Text Password""), ""5v8hUXfQu8ylf0sBGmc/Og=="", 0)",,,,2023-10-27 05:43:50,2023-10-27 05:43:52,1.664s,PASSED
"setEncryptedText(findTestObject(""Object Repository/Register/Set Text Confirmation Password""), ""5v8hUXfQu8ylf0sBGmc/Og=="", 0)",,,,2023-10-27 05:43:52,2023-10-27 05:43:54,1.696s,PASSED
"tap(findTestObject(""Object Repository/Register/CheckBox terms and conditions""), 0)",,,,2023-10-27 05:43:54,2023-10-27 05:43:55,1.731s,PASSED
"verifyElementVisible(findTestObject(""Register/TextView - WhatsApp number must be 9-13 character""), 0)",,,,2023-10-27 05:43:55,2023-10-27 05:43:57,1.372s,PASSED
closeApplication(),,,,2023-10-27 05:43:57,2023-10-27 05:43:59,2.646s,PASSED
,,,,,,,
Test Cases/Register/REG - 004 - register with whatsapp number upper 13,,,,2023-10-27 05:48:06,2023-10-27 05:49:23,1m - 17.901s,FAILED
"startApplication(""C:\Users\Hp\Downloads\DemoAppV2 (1).apk"", true)",,,,2023-10-27 05:48:06,2023-10-27 05:48:35,29.671s,PASSED
"tap(findTestObject(""Object Repository/Register/Button - Login Here""), 0)",,,,2023-10-27 05:48:35,2023-10-27 05:48:37,2.221s,PASSED
"tap(findTestObject(""Object Repository/Register/TextView - Register, now""), 0)",,,,2023-10-27 05:48:37,2023-10-27 05:48:39,1.408s,PASSED
"setText(findTestObject(""Object Repository/Register/SetText - Nama""), ""Robbi"", 0)",,,,2023-10-27 05:48:39,2023-10-27 05:48:41,1.958s,PASSED
"tap(findTestObject(""Object Repository/Register/Button Logo Calender""), 0)",,,,2023-10-27 05:48:41,2023-10-27 05:48:42,1.219s,PASSED
"tap(findTestObject(""Object Repository/Register/Button - OKE Calender""), 0)",,,,2023-10-27 05:48:42,2023-10-27 05:48:44,2.031s,PASSED
"setText(findTestObject(""Object Repository/Register/Set Text Email""), ""robbifirli12@gmail.com"", 0)",,,,2023-10-27 05:48:44,2023-10-27 05:48:45,1.190s,PASSED
"setText(findTestObject(""Object Repository/Register/Set Text Whatsapp""), ""082173181320222"", 0)",,,,2023-10-27 05:48:45,2023-10-27 05:48:47,1.665s,PASSED
"setEncryptedText(findTestObject(""Object Repository/Register/Set Text Password""), ""5v8hUXfQu8ylf0sBGmc/Og=="", 0)",,,,2023-10-27 05:48:47,2023-10-27 05:48:49,1.699s,PASSED
"setEncryptedText(findTestObject(""Object Repository/Register/Set Text Confirmation Password""), ""5v8hUXfQu8ylf0sBGmc/Og=="", 0)",,,,2023-10-27 05:48:49,2023-10-27 05:48:50,1.683s,PASSED
"tap(findTestObject(""Object Repository/Register/CheckBox terms and conditions""), 0)",,,,2023-10-27 05:48:50,2023-10-27 05:48:52,1.232s,PASSED
"verifyElementVisible(findTestObject(""Register/TextView - WhatsApp number must be 9-13 character""), 0)",,,,2023-10-27 05:48:52,2023-10-27 05:49:23,31.895s,FAILED
,,,,,,,
Test Cases/Register/REG - 005 - register with password under 8 characters,,,,2023-10-27 05:49:24,2023-10-27 05:50:09,45.215s,PASSED
"startApplication(""C:\Users\Hp\Downloads\DemoAppV2 (1).apk"", true)",,,,2023-10-27 05:49:25,2023-10-27 05:49:48,23.613s,PASSED
"tap(findTestObject(""Object Repository/Register/Button - Login Here""), 0)",,,,2023-10-27 05:49:48,2023-10-27 05:49:50,2.188s,PASSED
"tap(findTestObject(""Object Repository/Register/TextView - Register, now""), 0)",,,,2023-10-27 05:49:50,2023-10-27 05:49:52,1.398s,PASSED
"setText(findTestObject(""Object Repository/Register/SetText - Nama""), ""Robbi"", 0)",,,,2023-10-27 05:49:52,2023-10-27 05:49:54,1.971s,PASSED
"tap(findTestObject(""Object Repository/Register/Button Logo Calender""), 0)",,,,2023-10-27 05:49:54,2023-10-27 05:49:55,1.229s,PASSED
"tap(findTestObject(""Object Repository/Register/Button - OKE Calender""), 0)",,,,2023-10-27 05:49:55,2023-10-27 05:49:57,1.981s,PASSED
"setText(findTestObject(""Object Repository/Register/Set Text Email""), ""robbifirli12@gmail.com"", 0)",,,,2023-10-27 05:49:57,2023-10-27 05:49:59,1.579s,PASSED
"setText(findTestObject(""Object Repository/Register/Set Text Whatsapp""), ""082173181423"", 0)",,,,2023-10-27 05:49:59,2023-10-27 05:50:00,1.677s,PASSED
"setEncryptedText(findTestObject(""Object Repository/Register/Set Text Password""), ""0K40W4r8I27nhH1MCUAIwQ=="", 0)",,,,2023-10-27 05:50:00,2023-10-27 05:50:02,1.752s,PASSED
"setEncryptedText(findTestObject(""Object Repository/Register/Set Text Confirmation Password""), ""5v8hUXfQu8ylf0sBGmc/Og=="", 0)",,,,2023-10-27 05:50:02,2023-10-27 05:50:04,1.601s,PASSED
"tap(findTestObject(""Object Repository/Register/CheckBox terms and conditions""), 0)",,,,2023-10-27 05:50:04,2023-10-27 05:50:05,1.284s,PASSED
"verifyElementVisible(findTestObject(""Register/TextView - Password not match""), 0)",,,,2023-10-27 05:50:05,2023-10-27 05:50:06,1.076s,PASSED
closeApplication(),,,,2023-10-27 05:50:06,2023-10-27 05:50:09,2.753s,PASSED
,,,,,,,
Test Cases/Register/REG - 006 - register with password and confirmation password not same,,,,2023-10-27 05:50:09,2023-10-27 05:51:11,1m - 2.478s,PASSED
"startApplication(""C:\Users\Hp\Downloads\DemoAppV2 (1).apk"", true)",,,,2023-10-27 05:50:10,2023-10-27 05:50:51,40.633s,PASSED
"tap(findTestObject(""Object Repository/Register/Button - Login Here""), 0)",,,,2023-10-27 05:50:51,2023-10-27 05:50:53,2.574s,PASSED
"tap(findTestObject(""Object Repository/Register/TextView - Register, now""), 0)",,,,2023-10-27 05:50:53,2023-10-27 05:50:55,1.516s,PASSED
"setText(findTestObject(""Object Repository/Register/SetText - Nama""), ""Robbi"", 0)",,,,2023-10-27 05:50:55,2023-10-27 05:50:57,1.948s,PASSED
"tap(findTestObject(""Object Repository/Register/Button Logo Calender""), 0)",,,,2023-10-27 05:50:57,2023-10-27 05:50:58,1.481s,PASSED
"tap(findTestObject(""Object Repository/Register/Button - OKE Calender""), 0)",,,,2023-10-27 05:50:58,2023-10-27 05:51:00,1.973s,PASSED
"setText(findTestObject(""Object Repository/Register/Set Text Email""), ""robbifirli12@gmail.com"", 0)",,,,2023-10-27 05:51:00,2023-10-27 05:51:01,1.203s,PASSED
"setText(findTestObject(""Object Repository/Register/Set Text Whatsapp""), ""082173181423"", 0)",,,,2023-10-27 05:51:01,2023-10-27 05:51:03,1.857s,PASSED
"setEncryptedText(findTestObject(""Object Repository/Register/Set Text Password""), ""tzH6RvlfSTg="", 0)",,,,2023-10-27 05:51:03,2023-10-27 05:51:05,1.638s,PASSED
"setEncryptedText(findTestObject(""Object Repository/Register/Set Text Confirmation Password""), ""5v8hUXfQu8ylf0sBGmc/Og=="", 0)",,,,2023-10-27 05:51:05,2023-10-27 05:51:06,1.691s,PASSED
"tap(findTestObject(""Object Repository/Register/CheckBox terms and conditions""), 0)",,,,2023-10-27 05:51:06,2023-10-27 05:51:08,1.285s,PASSED
"verifyElementVisible(findTestObject(""Register/TextView - Password atleast must contain alphanumeric (a-Z,0-9) with minim 8 characters""), 0)",,,,2023-10-27 05:51:08,2023-10-27 05:51:09,0.976s,PASSED
closeApplication(),,,,2023-10-27 05:51:09,2023-10-27 05:51:11,2.512s,PASSED
,,,,,,,
Test Cases/Register/REG - 007 - Sign Up with Google,,,,2023-10-27 05:51:11,2023-10-27 05:51:55,43.339s,PASSED
"startApplication(""C:\Users\Hp\Downloads\DemoAppV2 (1).apk"", true)",,,,2023-10-27 05:51:12,2023-10-27 05:51:49,36.587s,PASSED
"tap(findTestObject(""Object Repository/Register/Button - Login Here""), 0)",,,,2023-10-27 05:51:49,2023-10-27 05:51:51,2.196s,PASSED
"tap(findTestObject(""Object Repository/Register/TextView - Register, now""), 0)",,,,2023-10-27 05:51:51,2023-10-27 05:51:52,1.492s,PASSED
closeApplication(),,,,2023-10-27 05:51:52,2023-10-27 05:51:55,2.153s,PASSED
